<?xml version="1.0" encoding="UTF-8" standalone="no"?>
<!-- Created with Inkscape (http://www.inkscape.org/) -->

<svg
   xmlns:dc="http://purl.org/dc/elements/1.1/"
   xmlns:cc="http://creativecommons.org/ns#"
   xmlns:rdf="http://www.w3.org/1999/02/22-rdf-syntax-ns#"
   xmlns:svg="http://www.w3.org/2000/svg"
   xmlns="http://www.w3.org/2000/svg"
   xmlns:xlink="http://www.w3.org/1999/xlink"
   xmlns:sodipodi="http://sodipodi.sourceforge.net/DTD/sodipodi-0.dtd"
   xmlns:inkscape="http://www.inkscape.org/namespaces/inkscape"
   width="300"
   height="450"
   id="svg2"
   version="1.1"
   inkscape:version="0.91 r13725"
   sodipodi:docname="assets.svg">
  <defs
     id="defs4">
    <filter
       style="color-interpolation-filters:sRGB"
       inkscape:label="Drop Shadow"
       id="filter3385"
       width="2"
       height="2"
       y="-0.5"
       x="-0.5">
      <feFlood
         flood-opacity="0.24"
         flood-color="rgb(0,0,0)"
         result="flood"
         id="feFlood3387" />
      <feComposite
         in="flood"
         in2="SourceGraphic"
         operator="in"
         result="composite1"
         id="feComposite3389" />
      <feGaussianBlur
         stdDeviation="1"
         result="blur"
         id="feGaussianBlur3391" />
      <feOffset
         dx="0"
         dy="1"
         result="offset"
         id="feOffset3393" />
      <feComposite
         in="SourceGraphic"
         in2="offset"
         operator="over"
         result="fbSourceGraphic"
         id="feComposite3395" />
      <feColorMatrix
         result="fbSourceGraphicAlpha"
         in="fbSourceGraphic"
         values="0 0 0 -1 0 0 0 0 -1 0 0 0 0 -1 0 0 0 0 1 0"
         id="feColorMatrix3397" />
      <feFlood
         id="feFlood3399"
         flood-opacity="0.12"
         flood-color="rgb(0,0,0)"
         result="flood"
         in="fbSourceGraphic" />
      <feComposite
         id="feComposite3401"
         in2="fbSourceGraphic"
         in="flood"
         operator="in"
         result="composite1" />
      <feGaussianBlur
         id="feGaussianBlur3403"
         stdDeviation="1.5"
         result="blur" />
      <feOffset
         id="feOffset3405"
         dx="0"
         dy="1"
         result="offset" />
      <feComposite
         id="feComposite3407"
         in2="offset"
         in="fbSourceGraphic"
         operator="over"
         result="composite2" />
    </filter>
    <filter
       style="color-interpolation-filters:sRGB"
       inkscape:label="Drop Shadow"
       id="filter3413"
       height="2"
       width="2"
       x="-0.5"
       y="-0.5">
      <feFlood
         flood-opacity="0.23"
         flood-color="rgb(0,0,0)"
         result="flood"
         id="feFlood3415" />
      <feComposite
         in="flood"
         in2="SourceGraphic"
         operator="in"
         result="composite1"
         id="feComposite3417" />
      <feGaussianBlur
         stdDeviation="3"
         result="blur"
         id="feGaussianBlur3419" />
      <feOffset
         dx="0"
         dy="3"
         result="offset"
         id="feOffset3421" />
      <feComposite
         in="SourceGraphic"
         in2="offset"
         operator="over"
         result="fbSourceGraphic"
         id="feComposite3423" />
      <feColorMatrix
         result="fbSourceGraphicAlpha"
         in="fbSourceGraphic"
         values="0 0 0 -1 0 0 0 0 -1 0 0 0 0 -1 0 0 0 0 1 0"
         id="feColorMatrix3425" />
      <feFlood
         id="feFlood3427"
         flood-opacity="0.16"
         flood-color="rgb(0,0,0)"
         result="flood"
         in="fbSourceGraphic" />
      <feComposite
         id="feComposite3429"
         in2="fbSourceGraphic"
         in="flood"
         operator="in"
         result="composite1" />
      <feGaussianBlur
         id="feGaussianBlur3431"
         stdDeviation="3"
         result="blur" />
      <feOffset
         id="feOffset3433"
         dx="0"
         dy="3"
         result="offset" />
      <feComposite
         id="feComposite3435"
         in2="offset"
         in="fbSourceGraphic"
         operator="over"
         result="composite2" />
    </filter>
    <clipPath
       clipPathUnits="userSpaceOnUse"
       id="clipPath4207">
      <rect
         y="436"
         x="4"
         height="36"
         width="60"
         id="rect4209"
         style="fill:#EEEEEE;fill-opacity:1;stroke:none" />
    </clipPath>
    <clipPath
       clipPathUnits="userSpaceOnUse"
       id="clipPath4212">
      <rect
         style="fill:#EEEEEE;fill-opacity:1;stroke:none"
         id="rect4214"
         width="60"
         height="36"
         x="68"
         y="888.36218" />
    </clipPath>
    <clipPath
       clipPathUnits="userSpaceOnUse"
       id="clipPath4217">
      <rect
         style="fill:#EEEEEE;fill-opacity:1;stroke:none"
         id="rect4219"
         width="60"
         height="36"
         x="4"
         y="928.36218" />
    </clipPath>
    <clipPath
       clipPathUnits="userSpaceOnUse"
       id="clipPath4230">
      <rect
         y="968.36218"
         x="4"
         height="48"
         width="48"
         id="rect4232"
         style="fill:#EEEEEE;fill-opacity:1;stroke:none" />
    </clipPath>
    <clipPath
       clipPathUnits="userSpaceOnUse"
       id="clipPath4234">
      <rect
         style="fill:#EEEEEE;fill-opacity:1;stroke:none"
         id="rect4236"
         width="48"
         height="48"
         x="56"
         y="968.36218" />
    </clipPath>
    <clipPath
       clipPathUnits="userSpaceOnUse"
       id="clipPath4238">
      <rect
         style="fill:#EEEEEE;fill-opacity:1;stroke:none"
         id="rect4240"
         width="60"
         height="36"
         x="154"
         y="888.36218" />
    </clipPath>
    <clipPath
       clipPathUnits="userSpaceOnUse"
       id="clipPath4242">
      <rect
         y="888.36218"
         x="218"
         height="36"
         width="60"
         id="rect4244"
         style="fill:#EEEEEE;fill-opacity:1;stroke:none" />
    </clipPath>
    <clipPath
       clipPathUnits="userSpaceOnUse"
       id="clipPath4246">
      <rect
         y="928.36218"
         x="154"
         height="36"
         width="60"
         id="rect4248"
         style="fill:#EEEEEE;fill-opacity:1;stroke:none" />
    </clipPath>
    <clipPath
       clipPathUnits="userSpaceOnUse"
       id="clipPath4250">
      <rect
         y="968.36218"
         x="4"
         height="48"
         width="48"
         id="rect4252"
         style="fill:#EEEEEE;fill-opacity:1;stroke:none" />
    </clipPath>
    <clipPath
       clipPathUnits="userSpaceOnUse"
       id="clipPath4254">
      <rect
         style="fill:#EEEEEE;fill-opacity:1;stroke:none"
         id="rect4256"
         width="48"
         height="48"
         x="56"
         y="968.36218" />
    </clipPath>
  </defs>
  <sodipodi:namedview
     id="base"
     pagecolor="#FFFFFF"
     bordercolor="#666666"
     borderopacity="1.0"
     inkscape:pageopacity="0.0"
     inkscape:pageshadow="2"
     inkscape:zoom="1.8244444"
     inkscape:cx="32.429961"
     inkscape:cy="223.90378"
     inkscape:document-units="px"
     inkscape:current-layer="checkbox-checked"
     showgrid="true"
     inkscape:window-width="1855"
     inkscape:window-height="1056"
     inkscape:window-x="65"
     inkscape:window-y="24"
     inkscape:window-maximized="1"
     inkscape:snap-bbox="true"
     inkscape:snap-bbox-edge-midpoints="true"
     inkscape:bbox-nodes="true"
     inkscape:bbox-paths="true"
     inkscape:snap-bbox-midpoints="true"
     inkscape:snap-object-midpoints="false"
     inkscape:snap-center="true"
     inkscape:object-nodes="true">
    <inkscape:grid
       type="xygrid"
       id="grid2985"
       empspacing="5"
       visible="true"
       enabled="true"
       snapvisiblegridlinesonly="true" />
  </sodipodi:namedview>
  <metadata
     id="metadata7">
    <rdf:RDF>
      <cc:Work
         rdf:about="">
        <dc:format>image/svg+xml</dc:format>
        <dc:type
           rdf:resource="http://purl.org/dc/dcmitype/StillImage" />
        <dc:title />
      </cc:Work>
    </rdf:RDF>
  </metadata>
  <g
     inkscape:label="assets"
     inkscape:groupmode="layer"
     id="layer1"
     transform="translate(0,-602.36218)">
    <g
       inkscape:groupmode="layer"
       id="layer2"
       inkscape:label="superbackdrop"
       sodipodi:insensitive="true">
      <rect
         style="color:#000000;clip-rule:nonzero;display:inline;overflow:visible;visibility:visible;opacity:1;isolation:auto;mix-blend-mode:normal;color-interpolation:sRGB;color-interpolation-filters:linearRGB;solid-color:#000000;solid-opacity:1;fill:#f5f5f5;fill-opacity:1;fill-rule:nonzero;stroke:none;stroke-width:1;stroke-linecap:butt;stroke-linejoin:miter;stroke-miterlimit:4;stroke-dasharray:none;stroke-dashoffset:0;stroke-opacity:1;marker:none;color-rendering:auto;image-rendering:auto;shape-rendering:auto;text-rendering:auto;enable-background:accumulate"
         id="rect4435"
         width="150"
         height="450"
         x="0"
         y="602.36218" />
      <rect
         y="602.36218"
         x="150"
         height="450"
         width="150"
         id="rect4451"
         style="color:#000000;clip-rule:nonzero;display:inline;overflow:visible;visibility:visible;opacity:1;isolation:auto;mix-blend-mode:normal;color-interpolation:sRGB;color-interpolation-filters:linearRGB;solid-color:#000000;solid-opacity:1;fill:#455a64;fill-opacity:1;fill-rule:nonzero;stroke:none;stroke-width:1;stroke-linecap:butt;stroke-linejoin:miter;stroke-miterlimit:4;stroke-dasharray:none;stroke-dashoffset:0;stroke-opacity:1;marker:none;color-rendering:auto;image-rendering:auto;shape-rendering:auto;text-rendering:auto;enable-background:accumulate"
         transform="translate(0,-2.6171874e-6)" />
    </g>
    <g
       id="checkbox-unchecked"
       inkscape:label="#g3759"
       transform="translate(1,-49)">
      <rect
         style="fill:#fafafa;fill-opacity:1;stroke:none"
         id="rect4365"
         width="20"
         height="20"
         x="4"
         y="656.36218"
         rx="2"
         ry="2" />
    </g>
    <g
       inkscape:label="#g3759"
       id="checkbox-checked"
       transform="translate(1,-24)">
      <rect
         ry="2"
         rx="2"
         y="656.36218"
         x="4"
         height="20"
         width="20"
         id="use4367"
         style="fill:#ff4081;fill-opacity:1;stroke:none" />
      <path
         sodipodi:nodetypes="ccccccc"
         inkscape:connector-curvature="0"
         id="use4617"
         d="M 18.585938,661.94812 12,668.53405 9.414062,665.94812 8,667.36218 l 4,4 c 2.666667,-2.66667 5.333333,-5.33333 8,-8 z"
         style="color:#000000;clip-rule:nonzero;display:inline;overflow:visible;visibility:visible;opacity:1;isolation:auto;mix-blend-mode:normal;color-interpolation:sRGB;color-interpolation-filters:linearRGB;solid-color:#000000;solid-opacity:1;fill:#ffffff;fill-opacity:1;fill-rule:nonzero;stroke:none;stroke-width:1;stroke-linecap:butt;stroke-linejoin:miter;stroke-miterlimit:4;stroke-dasharray:none;stroke-dashoffset:0;stroke-opacity:1;color-rendering:auto;image-rendering:auto;shape-rendering:auto;text-rendering:auto;enable-background:accumulate" />
    </g>
    <g
       transform="translate(1,1)"
       id="checkbox-mixed"
       inkscape:label="#g3759">
      <rect
         ry="2"
         rx="2"
         y="656.36218"
         x="4"
         height="20"
         width="20"
         id="use4369"
         style="fill:#ff4081;fill-opacity:1;stroke:none" />
      <rect
         style="fill:#FFFFFF;fill-opacity:1;stroke:none"
         id="rect4515"
         width="10"
         height="2"
         x="9"
         y="665.36218" />
    </g>
    <g
       id="radio-unchecked"
       transform="translate(1,-46)"
       inkscape:label="#g3799">
      <circle
         transform="translate(4,653.36218)"
         style="fill:#fafafa;fill-opacity:1;stroke:none"
         id="path4437"
         cx="10"
         cy="85"
         r="10" />
    </g>
    <g
       id="radio-checked"
       transform="translate(1,-21)"
       inkscape:label="#g3803">
      <circle
         transform="translate(4,653.36218)"
         id="use4439"
         style="fill:#ff4081;fill-opacity:1;stroke:none"
         cx="10"
         cy="85"
         r="10" />
      <ellipse
         style="fill:#ffffff;fill-opacity:1;stroke:none"
         id="path4513"
         cx="14"
         cy="738.36218"
         rx="3"
         ry="2.9999974" />
    </g>
    <g
       transform="translate(1,4)"
       id="radio-mixed"
       inkscape:label="#g3811">
      <circle
         transform="translate(4,653.36218)"
         id="use4441"
         style="fill:#ff4081;fill-opacity:1;stroke:none"
         cx="10"
         cy="85"
         r="10" />
      <rect
         y="737.36218"
         x="9"
         height="2"
         width="10"
         id="use4517"
         style="fill:#FFFFFF;fill-opacity:1;stroke:none" />
    </g>
    <g
       inkscape:label="#g3759"
       id="checkbox-unchecked-active"
       transform="translate(26,-49)">
      <rect
         ry="2"
         rx="2"
         y="656.36218"
         x="4"
         height="20"
         width="20"
         id="use4371"
         style="fill:#fafafa;fill-opacity:1;stroke:none" />
      <rect
         ry="2"
         rx="2"
         y="656.36218"
         x="4"
         height="20"
         width="20"
         id="rect6334"
         style="opacity:0.3;fill:#000000;fill-opacity:0.8;stroke:none" />
    </g>
    <g
       transform="translate(26,-24)"
       id="checkbox-checked-active"
       inkscape:label="#g3759">
      <rect
         style="fill:#ff4081;fill-opacity:1;stroke:none"
         id="use4381"
         width="20"
         height="20"
         x="4"
         y="656.36218"
         rx="2"
         ry="2" />
      <rect
         style="opacity:0.3;fill:#FFFFFF;fill-opacity:1;stroke:none"
         id="use6354"
         width="20"
         height="20"
         x="4"
         y="656.36218"
         rx="2"
         ry="2" />
      <path
         sodipodi:nodetypes="ccccccc"
         inkscape:connector-curvature="0"
         id="use4570"
         d="M 18.585938,661.94812 12,668.53405 9.414062,665.94812 8,667.36218 l 4,4 c 2.666667,-2.66667 5.333333,-5.33333 8,-8 z"
         style="color:#000000;clip-rule:nonzero;display:inline;overflow:visible;visibility:visible;opacity:1;isolation:auto;mix-blend-mode:normal;color-interpolation:sRGB;color-interpolation-filters:linearRGB;solid-color:#000000;solid-opacity:1;fill:#ffffff;fill-opacity:1;fill-rule:nonzero;stroke:none;stroke-width:1;stroke-linecap:butt;stroke-linejoin:miter;stroke-miterlimit:4;stroke-dasharray:none;stroke-dashoffset:0;stroke-opacity:1;color-rendering:auto;image-rendering:auto;shape-rendering:auto;text-rendering:auto;enable-background:accumulate" />
    </g>
    <g
       inkscape:label="#g3759"
       id="checkbox-mixed-active"
       transform="translate(26,1)">
      <rect
         style="fill:#ff4081;fill-opacity:1;stroke:none"
         id="use4383"
         width="20"
         height="20"
         x="4"
         y="656.36218"
         rx="2"
         ry="2" />
      <rect
         style="opacity:0.3;fill:#FFFFFF;fill-opacity:1;stroke:none"
         id="use6354-2"
         width="20"
         height="20"
         x="4"
         y="656.36218"
         rx="2"
         ry="2" />
      <rect
         y="665.36218"
         x="9"
         height="2"
         width="10"
         id="use4531"
         style="fill:#FFFFFF;fill-opacity:1;stroke:none" />
    </g>
    <g
       id="radio-unchecked-active"
       transform="translate(26,-46)"
       inkscape:label="#g3911">
      <circle
         transform="translate(4,653.36218)"
         id="use4443"
         style="fill:#fafafa;fill-opacity:1;stroke:none"
         cx="10"
         cy="85"
         r="10" />
      <circle
         id="path6381"
         style="opacity:0.3;fill:#000000;fill-opacity:0.8;stroke:none"
         transform="translate(4,653.36218)"
         cx="10"
         cy="85"
         r="10" />
    </g>
    <g
       transform="translate(26,-21)"
       id="radio-checked-active"
       inkscape:label="#g3917">
      <circle
         style="fill:#ff4081;fill-opacity:1;stroke:none"
         id="use4489"
         transform="translate(4,653.36218)"
         cx="10"
         cy="85"
         r="10" />
      <circle
         transform="translate(4,653.36218)"
         style="opacity:0.3;fill:#FFFFFF;fill-opacity:1;stroke:none"
         id="use6401"
         cx="10"
         cy="85"
         r="10" />
      <ellipse
         id="use4541"
         style="fill:#ffffff;fill-opacity:1;stroke:none"
         cx="14"
         cy="738.36218"
         rx="3"
         ry="2.9999974" />
    </g>
    <g
       id="radio-mixed-active"
       transform="translate(26,4)"
       inkscape:label="#g3923">
      <circle
         style="fill:#ff4081;fill-opacity:1;stroke:none"
         id="use4491"
         transform="translate(4,653.36218)"
         cx="10"
         cy="85"
         r="10" />
      <circle
         transform="translate(4,653.36218)"
         style="opacity:0.3;fill:#FFFFFF;fill-opacity:1;stroke:none"
         id="use6401-6"
         cx="10"
         cy="85"
         r="10" />
      <rect
         style="fill:#FFFFFF;fill-opacity:1;stroke:none"
         id="use4551"
         width="10"
         height="2"
         x="9"
         y="737.36218" />
    </g>
    <g
       inkscape:label="#g3759"
       id="checkbox-unchecked-insensitive"
       transform="translate(51,-49)">
      <rect
         ry="2"
         rx="2"
         y="656.36218"
         x="4"
         height="20"
         width="20"
         id="use4373"
         style="opacity:0.09;fill:#000000;fill-opacity:0.8;stroke:none" />
    </g>
    <g
       id="radio-unchecked-insensitive"
       transform="translate(51,-46)"
       inkscape:label="#g3947">
      <circle
         transform="translate(4,653.36218)"
         id="use4445"
         style="opacity:0.09;fill:#000000;fill-opacity:0.8;stroke:none"
         cx="10"
         cy="85"
         r="10" />
    </g>
    <g
       transform="translate(51,-24)"
       id="checkbox-checked-insensitive"
       inkscape:label="#g3759">
      <rect
         style="opacity:0.12;fill:#ff4081;fill-opacity:1;stroke:none"
         id="use4385"
         width="20"
         height="20"
         x="4"
         y="656.36218"
         rx="2"
         ry="2" />
      <path
         sodipodi:nodetypes="ccccccc"
         inkscape:connector-curvature="0"
         id="use4570-7"
         d="M 18.585938,661.94812 12,668.53405 9.414062,665.94812 8,667.36218 l 4,4 c 2.666667,-2.66667 5.333333,-5.33333 8,-8 z"
         style="color:#000000;clip-rule:nonzero;display:inline;overflow:visible;visibility:visible;opacity:0.4;isolation:auto;mix-blend-mode:normal;color-interpolation:sRGB;color-interpolation-filters:linearRGB;solid-color:#000000;solid-opacity:1;fill:#ff4081;fill-opacity:1;fill-rule:nonzero;stroke:none;stroke-width:1;stroke-linecap:butt;stroke-linejoin:miter;stroke-miterlimit:4;stroke-dasharray:none;stroke-dashoffset:0;stroke-opacity:1;color-rendering:auto;image-rendering:auto;shape-rendering:auto;text-rendering:auto;enable-background:accumulate" />
    </g>
    <g
       transform="translate(51,1)"
       id="checkbox-mixed-insensitive"
       inkscape:label="#g3759">
      <rect
         style="opacity:0.12;fill:#ff4081;fill-opacity:1;stroke:none"
         id="use4387"
         width="20"
         height="20"
         x="4"
         y="656.36218"
         rx="2"
         ry="2" />
      <rect
         y="665.36218"
         x="9"
         height="2"
         width="10"
         id="use4533"
         style="opacity:0.4;fill:#ff4081;fill-opacity:1;stroke:none" />
    </g>
    <g
       transform="translate(51,-21)"
       id="radio-checked-insensitive"
       inkscape:label="#g4019">
      <circle
         style="opacity:0.12;fill:#ff4081;fill-opacity:1;stroke:none"
         id="use4493"
         transform="translate(4,653.36218)"
         cx="10"
         cy="85"
         r="10" />
      <ellipse
         id="use4543"
         style="opacity:0.4;fill:#ff4081;fill-opacity:1;stroke:none"
         cx="14"
         cy="738.36218"
         rx="3"
         ry="2.9999974" />
    </g>
    <g
       transform="translate(51,4)"
       id="radio-mixed-insensitive"
       inkscape:label="#g4025">
      <circle
         style="opacity:0.12;fill:#ff4081;fill-opacity:1;stroke:none"
         id="use4495"
         transform="translate(4,653.36218)"
         cx="10"
         cy="85"
         r="10" />
      <rect
         style="opacity:0.4;fill:#ff4081;fill-opacity:1;stroke:none"
         id="use4553"
         width="10"
         height="2"
         x="9"
         y="737.36218" />
    </g>
    <g
       id="checkbox-selectionmode"
       transform="translate(1,-43)"
       inkscape:label="#g3954">
      <use
         x="0"
         y="0"
         xlink:href="#rect4365"
         id="use4195"
         width="1"
         height="1"
         transform="matrix(2,0,0,2,-4,-512.36219)" />
    </g>
    <g
       id="checkbox-checked-selectionmode"
       transform="translate(1,-42.00001)"
       inkscape:label="#g3959">
      <use
         transform="matrix(2,0,0,2,-4,-468.36218)"
         x="0"
         y="0"
         xlink:href="#use4367"
         id="use4235"
         width="1"
         height="1" />
      <use
         transform="matrix(2,0,0,2,-4,-468.36217)"
         x="0"
         y="0"
         xlink:href="#use4617"
         id="use4892"
         width="100%"
         height="100%" />
    </g>
    <g
       id="checkbox-active-selectionmode"
       transform="translate(46,-43.00001)"
       inkscape:label="#g3980">
      <use
         transform="matrix(2,0,0,2,-4,-512.36218)"
         x="0"
         y="0"
         xlink:href="#use4371"
         id="use4478"
         width="1"
         height="1" />
      <use
         transform="matrix(2,0,0,2,-4,-512.36218)"
         x="0"
         y="0"
         xlink:href="#rect6334"
         id="use4480"
         width="1"
         height="1" />
    </g>
    <g
       id="checkbox-checked-active-selectionmode"
       transform="translate(46,-42.00002)"
       inkscape:label="#g3988">
      <use
         transform="matrix(2,0,0,2,-4,-468.36217)"
         x="0"
         y="0"
         xlink:href="#use4381"
         id="use4325"
         width="1"
         height="1" />
      <use
         transform="matrix(2,0,0,2,-4,-468.36217)"
         x="0"
         y="0"
         xlink:href="#use6354"
         id="use4327"
         width="1"
         height="1" />
      <use
         transform="matrix(2,0,0,2,-4,-468.36216)"
         x="0"
         y="0"
         xlink:href="#use4570"
         id="use4909"
         width="100%"
         height="100%" />
    </g>
    <g
       transform="translate(91,-43.00001)"
       id="checkbox-insensitive-selectionmode"
       inkscape:label="#g3996">
      <use
         transform="matrix(2,0,0,2,-4,-512.36218)"
         x="0"
         y="0"
         xlink:href="#use4373"
         id="use4386"
         width="1"
         height="1" />
    </g>
    <g
       id="checkbox-checked-insensitive-selectionmode"
       transform="translate(91,1.99999)"
       inkscape:label="#g4004">
      <use
         transform="matrix(2,0,0,2,-4,-512.36218)"
         x="0"
         y="0"
         xlink:href="#use4385"
         id="use4426"
         width="1"
         height="1" />
      <use
         transform="matrix(2,0,0,2,-4,-512.36217)"
         x="0"
         y="0"
         xlink:href="#use4570-7"
         id="use4926"
         width="100%"
         height="100%" />
    </g>
    <g
       transform="translate(151,-49)"
       inkscape:label="#g3759"
       id="checkbox-unchecked-dark">
      <rect
         ry="2"
         rx="2"
         y="656.36218"
         x="4"
         height="20"
         width="20"
         id="use4401"
         style="fill:#607d8b;fill-opacity:1;stroke:none" />
    </g>
    <g
       transform="translate(151,-24)"
       id="checkbox-checked-dark"
       inkscape:label="#g3759">
      <rect
         style="fill:#ff4081;fill-opacity:1;stroke:none"
         id="use4403"
         width="20"
         height="20"
         x="4"
         y="656.36218"
         rx="2"
         ry="2" />
      <use
         x="0"
         y="0"
         xlink:href="#use4617"
         id="use4835"
         width="100%"
         height="100%" />
    </g>
    <g
       inkscape:label="#g3759"
       id="checkbox-mixed-dark"
       transform="translate(151,1)">
      <rect
         style="fill:#ff4081;fill-opacity:1;stroke:none"
         id="use4405"
         width="20"
         height="20"
         x="4"
         y="656.36218"
         rx="2"
         ry="2" />
      <rect
         y="665.36218"
         x="9"
         height="2"
         width="10"
         id="use4563"
         style="fill:#FFFFFF;fill-opacity:1;stroke:none" />
    </g>
    <g
       transform="translate(151,-46)"
       id="radio-unchecked-dark"
       inkscape:label="#g4206">
      <circle
         transform="translate(4,653.36218)"
         id="use4453"
         style="fill:#607d8b;fill-opacity:1;stroke:none"
         cx="10"
         cy="85"
         r="10" />
    </g>
    <g
       transform="translate(151,-21)"
       id="radio-checked-dark"
       inkscape:label="#g4212">
      <circle
         style="fill:#ff4081;fill-opacity:1;stroke:none"
         id="use4465"
         transform="translate(4,653.36218)"
         cx="10"
         cy="85"
         r="10" />
      <ellipse
         id="use4565"
         style="fill:#ffffff;fill-opacity:1;stroke:none"
         cx="14"
         cy="738.36218"
         rx="3"
         ry="2.9999974" />
    </g>
    <g
       id="radio-mixed-dark"
       transform="translate(151,4)"
       inkscape:label="#g4218">
      <circle
         style="fill:#ff4081;fill-opacity:1;stroke:none"
         id="use4467"
         transform="translate(4,653.36218)"
         cx="10"
         cy="85"
         r="10" />
      <rect
         style="fill:#FFFFFF;fill-opacity:1;stroke:none"
         id="use4567"
         width="10"
         height="2"
         x="9"
         y="737.36218" />
    </g>
    <g
       transform="translate(176,-49)"
       id="checkbox-unchecked-active-dark"
       inkscape:label="#g3759">
      <rect
         style="fill:#607d8b;fill-opacity:1;stroke:none"
         id="use4407"
         width="20"
         height="20"
         x="4"
         y="656.36218"
         rx="2"
         ry="2" />
      <rect
         style="opacity:0.3;fill:#FFFFFF;fill-opacity:1;stroke:none"
         id="rect6553"
         width="20"
         height="20"
         x="4"
         y="656.36218"
         rx="2"
         ry="2" />
    </g>
    <g
       inkscape:label="#g3759"
       id="checkbox-checked-active-dark"
       transform="translate(176,-24)">
      <rect
         ry="2"
         rx="2"
         y="656.36218"
         x="4"
         height="20"
         width="20"
         id="use4417"
         style="fill:#ff4081;fill-opacity:1;stroke:none" />
      <rect
         ry="2"
         rx="2"
         y="656.36218"
         x="4"
         height="20"
         width="20"
         id="use6573"
         style="opacity:0.3;fill:#FFFFFF;fill-opacity:1;stroke:none" />
      <use
         x="0"
         y="0"
         xlink:href="#use4570"
         id="use4854"
         width="100%"
         height="100%" />
    </g>
    <g
       transform="translate(176,1)"
       id="checkbox-mixed-active-dark"
       inkscape:label="#g3759">
      <rect
         ry="2"
         rx="2"
         y="656.36218"
         x="4"
         height="20"
         width="20"
         id="use4419"
         style="fill:#ff4081;fill-opacity:1;stroke:none" />
      <rect
         ry="2"
         rx="2"
         y="656.36218"
         x="4"
         height="20"
         width="20"
         id="use6573-6"
         style="opacity:0.3;fill:#FFFFFF;fill-opacity:1;stroke:none" />
      <rect
         style="fill:#FFFFFF;fill-opacity:1;stroke:none"
         id="use4573"
         width="10"
         height="2"
         x="9"
         y="665.36218" />
    </g>
    <g
       transform="translate(176,-46)"
       id="radio-unchecked-active-dark"
       inkscape:label="#g4278">
      <circle
         style="fill:#607d8b;fill-opacity:1;stroke:none"
         id="use4455"
         transform="translate(4,653.36218)"
         cx="10"
         cy="85"
         r="10" />
      <circle
         transform="translate(4,653.36218)"
         style="opacity:0.3;fill:#FFFFFF;fill-opacity:1;stroke:none"
         id="path6621"
         cx="10"
         cy="85"
         r="10" />
    </g>
    <g
       id="radio-checked-active-dark"
       transform="translate(176,-21)"
       inkscape:label="#g4284">
      <circle
         style="fill:#ff4081;fill-opacity:1;stroke:none"
         id="use4469"
         transform="translate(4,653.36218)"
         cx="10"
         cy="85"
         r="10" />
      <circle
         id="use6641"
         style="opacity:0.3;fill:#FFFFFF;fill-opacity:1;stroke:none"
         transform="translate(4,653.36218)"
         cx="10"
         cy="85"
         r="10" />
      <ellipse
         style="fill:#ffffff;fill-opacity:1;stroke:none"
         id="use4577"
         cx="14"
         cy="738.36218"
         rx="3"
         ry="2.9999974" />
    </g>
    <g
       transform="translate(176,4)"
       id="radio-mixed-active-dark"
       inkscape:label="#g4290">
      <circle
         style="fill:#ff4081;fill-opacity:1;stroke:none"
         id="use4471"
         transform="translate(4,653.36218)"
         cx="10"
         cy="85"
         r="10" />
      <circle
         id="use6641-2"
         style="opacity:0.3;fill:#FFFFFF;fill-opacity:1;stroke:none"
         transform="translate(4,653.36218)"
         cx="10"
         cy="85"
         r="10" />
      <rect
         y="737.36218"
         x="9"
         height="2"
         width="10"
         id="use4581"
         style="fill:#FFFFFF;fill-opacity:1;stroke:none" />
    </g>
    <g
       transform="translate(201,-49.000003)"
       id="checkbox-unchecked-insensitive-dark"
       inkscape:label="#g3759">
      <rect
         style="opacity:0.09;fill:#FFFFFF;fill-opacity:1;stroke:none"
         id="use4409"
         width="20"
         height="20"
         x="4"
         y="656.36218"
         rx="2"
         ry="2" />
    </g>
    <g
       transform="translate(201,-46)"
       id="radio-unchecked-insensitive-dark"
       inkscape:label="#g4302">
      <circle
         style="opacity:0.09;fill:#FFFFFF;fill-opacity:1;stroke:none"
         id="use4457"
         transform="translate(4,653.36218)"
         cx="10"
         cy="85"
         r="10" />
    </g>
    <g
       inkscape:label="#g3759"
       id="checkbox-checked-insensitive-dark"
       transform="translate(201,-24)">
      <rect
         ry="2"
         rx="2"
         y="656.36218"
         x="4"
         height="20"
         width="20"
         id="use4421"
         style="opacity:0.12;fill:#ff4081;fill-opacity:1;stroke:none" />
      <use
         x="0"
         y="0"
         xlink:href="#use4570-7"
         id="use4873"
         width="100%"
         height="100%" />
    </g>
    <g
       inkscape:label="#g3759"
       id="checkbox-mixed-insensitive-dark"
       transform="translate(201,1)">
      <rect
         ry="2"
         rx="2"
         y="656.36218"
         x="4"
         height="20"
         width="20"
         id="use4423"
         style="opacity:0.12;fill:#ff4081;fill-opacity:1;stroke:none" />
      <rect
         style="opacity:0.4;fill:#ff4081;fill-opacity:1;stroke:none"
         id="use4575"
         width="10"
         height="2"
         x="9"
         y="665.36218" />
    </g>
    <g
       id="radio-checked-insensitive-dark"
       transform="translate(201,-21)"
       inkscape:label="#g4324">
      <circle
         style="opacity:0.12;fill:#ff4081;fill-opacity:1;stroke:none"
         id="use4473"
         transform="translate(4,653.36218)"
         cx="10"
         cy="85"
         r="10" />
      <ellipse
         style="opacity:0.4;fill:#ff4081;fill-opacity:1;stroke:none"
         id="use4579"
         cx="14"
         cy="738.36218"
         rx="3"
         ry="2.9999974" />
    </g>
    <g
       id="radio-mixed-insensitive-dark"
       transform="translate(201,4)"
       inkscape:label="#g4332">
      <circle
         style="opacity:0.12;fill:#ff4081;fill-opacity:1;stroke:none"
         id="use4475"
         transform="translate(4,653.36218)"
         cx="10"
         cy="85"
         r="10" />
      <rect
         y="737.36218"
         x="9"
         height="2"
         width="10"
         id="use4583"
         style="opacity:0.4;fill:#ff4081;fill-opacity:1;stroke:none" />
    </g>
    <g
       transform="translate(151,-43)"
       id="checkbox-selectionmode-dark"
       inkscape:label="#g4498">
      <use
         x="0"
         y="0"
         xlink:href="#use4401"
         id="use4532"
         width="1"
         height="1"
         transform="matrix(2,0,0,2,-4,-512.36219)" />
    </g>
    <g
       transform="translate(151,-42.00001)"
       id="checkbox-checked-selectionmode-dark"
       inkscape:label="#g4506">
      <use
         transform="matrix(2,0,0,2,-4,-468.36218)"
         x="0"
         y="0"
         xlink:href="#use4403"
         id="use4572"
         width="1"
         height="1" />
      <use
         transform="matrix(2,0,0,2,-4,-468.36217)"
         x="0"
         y="0"
         xlink:href="#use4835"
         id="use4943"
         width="100%"
         height="100%" />
    </g>
    <g
       transform="translate(196,-43.00001)"
       id="checkbox-active-selectionmode-dark"
       inkscape:label="#g4530">
      <use
         transform="matrix(2,0,0,2,-4,-512.36218)"
         x="0"
         y="0"
         xlink:href="#use4407"
         id="use4623"
         width="1"
         height="1" />
      <use
         transform="matrix(2,0,0,2,-4,-512.36218)"
         x="0"
         y="0"
         xlink:href="#rect6553"
         id="use4625"
         width="1"
         height="1" />
    </g>
    <g
       transform="matrix(2,0,0,2,182,-880.3622)"
       id="checkbox-checked-active-selectionmode-dark"
       inkscape:label="#g4538">
      <use
         transform="translate(5,185)"
         x="0"
         y="0"
         xlink:href="#use4417"
         id="use4673"
         width="1"
         height="1" />
      <use
         transform="translate(5,185)"
         x="0"
         y="0"
         xlink:href="#use6573"
         id="use4675"
         width="1"
         height="1" />
      <use
         transform="translate(5,185.00001)"
         x="0"
         y="0"
         xlink:href="#use4854"
         id="use4960"
         width="100%"
         height="100%" />
    </g>
    <g
       id="checkbox-insensitive-selectionmode-dark"
       transform="translate(241,-43.00001)"
       inkscape:label="#g4546">
      <use
         transform="matrix(2,0,0,2,-4,-512.36218)"
         x="0"
         y="0"
         xlink:href="#use4409"
         id="use4733"
         width="1"
         height="1" />
    </g>
    <g
       transform="translate(241,1.99998)"
       id="checkbox-checked-insensitive-selectionmode-dark"
       inkscape:label="#g4554">
      <use
         transform="matrix(2,0,0,2,-4,-512.36217)"
         x="0"
         y="0"
         xlink:href="#use4421"
         id="use4773"
         width="1"
         height="1" />
      <use
         transform="matrix(2,0,0,2,-4,-512.36216)"
         x="0"
         y="0"
         xlink:href="#use4873"
         id="use4977"
         width="100%"
         height="100%" />
    </g>
    <g
       id="osd-shadow"
       inkscape:label="#g4506"
       transform="translate(0,150)">
      <rect
         clip-path="url(#clipPath4230)"
         ry="1.9999974"
         rx="1.9999974"
         y="976.36218"
         x="12"
         height="32"
         width="32"
         id="rect4366"
         style="opacity:1;fill:#FFFFFF;fill-opacity:1;stroke:none;filter:url(#filter3413)"
         transform="translate(2,-120)" />
    </g>
    <g
       id="osd-shadow-backdrop"
       inkscape:label="#g4509"
       transform="translate(5,29.999997)">
      <rect
         clip-path="url(#clipPath4234)"
         style="opacity:1;fill:#FFFFFF;fill-opacity:1;stroke:none;filter:url(#filter3385)"
         id="rect4444"
         width="32"
         height="32"
         x="64"
         y="976.36218"
         rx="1.9999974"
         ry="1.9999974" />
    </g>
    <g
       id="osd-shadow-dark"
       inkscape:label="#g4512"
       transform="translate(2,30)">
      <rect
         transform="translate(150,-2.6171874e-6)"
         style="opacity:1;fill:#546e7a;fill-opacity:1;stroke:none;filter:url(#filter3413)"
         id="rect4502"
         width="32"
         height="32"
         x="12"
         y="976.36218"
         rx="2"
         ry="2"
         clip-path="url(#clipPath4250)" />
    </g>
    <g
       id="osd-shadow-backdrop-dark"
       inkscape:label="#g4515"
       transform="translate(5,30)">
      <rect
         transform="translate(150,-2.6171874e-6)"
         ry="2"
         rx="2"
         y="976.36218"
         x="64"
         height="32"
         width="32"
         id="rect4504"
         style="opacity:1;fill:#546e7a;fill-opacity:1;stroke:none;filter:url(#filter3385)"
         clip-path="url(#clipPath4254)" />
    </g>
    <g
       id="slider-horz-scale-has-marks-above"
       inkscape:label="#g5366"
       transform="translate(0,155)">
      <rect
         y="692.36218"
         x="10"
         height="25"
         width="20"
         id="rect4881"
         style="color:#000000;clip-rule:nonzero;display:inline;overflow:visible;visibility:visible;opacity:1;isolation:auto;mix-blend-mode:normal;color-interpolation:sRGB;color-interpolation-filters:linearRGB;solid-color:#000000;solid-opacity:1;fill:#000000;fill-opacity:0;fill-rule:nonzero;stroke:none;stroke-width:1;stroke-linecap:butt;stroke-linejoin:miter;stroke-miterlimit:4;stroke-dasharray:none;stroke-dashoffset:0;stroke-opacity:1;color-rendering:auto;image-rendering:auto;shape-rendering:auto;text-rendering:auto;enable-background:accumulate" />
      <path
         inkscape:transform-center-y="-2.0710688"
         inkscape:connector-curvature="0"
         id="path4883"
         d="m 12.928932,700.29111 a 10,10 0 0 0 0,14.14214 10,10 0 0 0 14.142136,0 10,10 0 0 0 0,-14.14214 L 20,693.22004 l -7.071068,7.07107 z"
         style="color:#000000;clip-rule:nonzero;display:inline;overflow:visible;visibility:visible;opacity:1;isolation:auto;mix-blend-mode:normal;color-interpolation:sRGB;color-interpolation-filters:linearRGB;solid-color:#000000;solid-opacity:1;fill:#ff4081;fill-opacity:1;fill-rule:nonzero;stroke:none;stroke-width:1;stroke-linecap:butt;stroke-linejoin:miter;stroke-miterlimit:4;stroke-dasharray:none;stroke-dashoffset:0;stroke-opacity:1;color-rendering:auto;image-rendering:auto;shape-rendering:auto;text-rendering:auto;enable-background:accumulate" />
    </g>
    <g
       id="slider-horz-scale-has-marks-above-insensitive"
       inkscape:label="#g5375"
       transform="translate(0,155)">
      <use
         height="100%"
         width="100%"
         transform="translate(60,-1.7187404e-8)"
         id="use4901"
         xlink:href="#rect4881"
         y="0"
         x="0" />
      <path
         style="color:#000000;clip-rule:nonzero;display:inline;overflow:visible;visibility:visible;opacity:1;isolation:auto;mix-blend-mode:normal;color-interpolation:sRGB;color-interpolation-filters:linearRGB;solid-color:#000000;solid-opacity:1;fill:#f5f5f5;fill-opacity:1;fill-rule:nonzero;stroke:none;stroke-width:1;stroke-linecap:butt;stroke-linejoin:miter;stroke-miterlimit:4;stroke-dasharray:none;stroke-dashoffset:0;stroke-opacity:1;color-rendering:auto;image-rendering:auto;shape-rendering:auto;text-rendering:auto;enable-background:accumulate"
         d="m 72.928932,700.29111 a 10,10 0 0 0 0,14.14214 10,10 0 0 0 14.142136,0 10,10 0 0 0 0,-14.14214 L 80,693.22004 l -7.071068,7.07107 z"
         id="use4903"
         inkscape:connector-curvature="0"
         inkscape:transform-center-y="-2.0710688" />
      <path
         inkscape:connector-curvature="0"
         id="path4888"
         d="m 74.696699,702.05888 a 7.5,7.5 0 0 0 0,10.6066 7.5,7.5 0 0 0 10.606602,0 7.5,7.5 0 0 0 0,-10.6066 L 80,696.75558 l -5.303301,5.3033 z"
         style="color:#000000;clip-rule:nonzero;display:inline;overflow:visible;visibility:visible;opacity:0.12;isolation:auto;mix-blend-mode:normal;color-interpolation:sRGB;color-interpolation-filters:linearRGB;solid-color:#000000;solid-opacity:1;fill:none;fill-opacity:0.24929181;fill-rule:nonzero;stroke:#000000;stroke-width:5;stroke-linecap:butt;stroke-linejoin:miter;stroke-miterlimit:4;stroke-dasharray:none;stroke-dashoffset:0;stroke-opacity:0.8;color-rendering:auto;image-rendering:auto;shape-rendering:auto;text-rendering:auto;enable-background:accumulate" />
    </g>
    <g
       id="slider-horz-scale-has-marks-above-dark"
       inkscape:label="#g5422"
       transform="translate(0,155)">
      <rect
         style="color:#000000;clip-rule:nonzero;display:inline;overflow:visible;visibility:visible;opacity:1;isolation:auto;mix-blend-mode:normal;color-interpolation:sRGB;color-interpolation-filters:linearRGB;solid-color:#000000;solid-opacity:1;fill:#000000;fill-opacity:0;fill-rule:nonzero;stroke:none;stroke-width:1;stroke-linecap:butt;stroke-linejoin:miter;stroke-miterlimit:4;stroke-dasharray:none;stroke-dashoffset:0;stroke-opacity:1;color-rendering:auto;image-rendering:auto;shape-rendering:auto;text-rendering:auto;enable-background:accumulate"
         id="rect5101"
         width="20"
         height="25"
         x="160"
         y="692.36218" />
      <path
         style="color:#000000;clip-rule:nonzero;display:inline;overflow:visible;visibility:visible;opacity:1;isolation:auto;mix-blend-mode:normal;color-interpolation:sRGB;color-interpolation-filters:linearRGB;solid-color:#000000;solid-opacity:1;fill:#ff4081;fill-opacity:1;fill-rule:nonzero;stroke:none;stroke-width:1;stroke-linecap:butt;stroke-linejoin:miter;stroke-miterlimit:4;stroke-dasharray:none;stroke-dashoffset:0;stroke-opacity:1;color-rendering:auto;image-rendering:auto;shape-rendering:auto;text-rendering:auto;enable-background:accumulate"
         d="m 162.92893,700.29111 a 10,10 0 0 0 0,14.14214 10,10 0 0 0 14.14214,0 10,10 0 0 0 0,-14.14214 L 170,693.22004 l -7.07107,7.07107 z"
         id="path5103"
         inkscape:connector-curvature="0"
         inkscape:transform-center-y="-2.0710688" />
    </g>
    <g
       id="slider-horz-scale-has-marks-above-insensitive-dark"
       inkscape:label="#g5482"
       transform="translate(0,155)">
      <use
         x="0"
         y="0"
         xlink:href="#rect4881"
         id="use5107"
         transform="translate(210,-1.7187404e-8)"
         width="100%"
         height="100%" />
      <path
         inkscape:transform-center-y="-2.0710688"
         inkscape:connector-curvature="0"
         id="path5109"
         d="m 222.92893,700.29111 a 10,10 0 0 0 0,14.14214 10,10 0 0 0 14.14214,0 10,10 0 0 0 0,-14.14214 L 230,693.22004 l -7.07107,7.07107 z"
         style="color:#000000;clip-rule:nonzero;display:inline;overflow:visible;visibility:visible;opacity:1;isolation:auto;mix-blend-mode:normal;color-interpolation:sRGB;color-interpolation-filters:linearRGB;solid-color:#000000;solid-opacity:1;fill:#455a64;fill-opacity:1;fill-rule:nonzero;stroke:none;stroke-width:1;stroke-linecap:butt;stroke-linejoin:miter;stroke-miterlimit:4;stroke-dasharray:none;stroke-dashoffset:0;stroke-opacity:1;color-rendering:auto;image-rendering:auto;shape-rendering:auto;text-rendering:auto;enable-background:accumulate" />
      <path
         style="color:#000000;clip-rule:nonzero;display:inline;overflow:visible;visibility:visible;opacity:0.12;isolation:auto;mix-blend-mode:normal;color-interpolation:sRGB;color-interpolation-filters:linearRGB;solid-color:#000000;solid-opacity:1;fill:none;fill-opacity:0.24929181;fill-rule:nonzero;stroke:#FFFFFF;stroke-width:5;stroke-linecap:butt;stroke-linejoin:miter;stroke-miterlimit:4;stroke-dasharray:none;stroke-dashoffset:0;stroke-opacity:1;color-rendering:auto;image-rendering:auto;shape-rendering:auto;text-rendering:auto;enable-background:accumulate"
         d="m 224.6967,702.05888 a 7.5,7.5 0 0 0 0,10.6066 7.5,7.5 0 0 0 10.6066,0 7.5,7.5 0 0 0 0,-10.6066 l -5.3033,-5.3033 -5.3033,5.3033 z"
         id="path5111"
         inkscape:connector-curvature="0" />
    </g>
    <g
       id="slider-horz-scale-has-marks-below"
       inkscape:transform-center-y="2.5000404"
       transform="matrix(-1,0,0,-1,40,1629.7244)"
       inkscape:label="#g5380">
      <use
         height="100%"
         width="100%"
         transform="translate(0,29.999997)"
         id="use5270"
         xlink:href="#rect4881"
         y="0"
         x="0" />
      <use
         height="100%"
         width="100%"
         transform="translate(0,29.999997)"
         id="use5272"
         inkscape:transform-center-y="-2.0710688"
         xlink:href="#path4883"
         y="0"
         x="0" />
    </g>
    <g
       id="slider-horz-scale-has-marks-below-insensitive"
       inkscape:transform-center-y="2.5000404"
       transform="matrix(-1,0,0,-1,160,1629.7244)"
       inkscape:label="#g5389">
      <use
         height="100%"
         width="100%"
         transform="translate(0,29.999997)"
         id="use5274"
         xlink:href="#use4901"
         y="0"
         x="0" />
      <use
         height="100%"
         width="100%"
         transform="translate(0,29.999997)"
         id="use5276"
         inkscape:transform-center-y="-2.0710688"
         xlink:href="#use4903"
         y="0"
         x="0" />
      <use
         height="100%"
         width="100%"
         transform="translate(0,29.999997)"
         id="use5278"
         xlink:href="#path4888"
         y="0"
         x="0" />
    </g>
    <g
       id="slider-horz-scale-has-marks-below-dark"
       inkscape:transform-center-y="2.5000395"
       transform="matrix(-1,0,0,-1,340,1629.7244)"
       inkscape:label="#g5487">
      <use
         height="100%"
         width="100%"
         transform="translate(0,29.999997)"
         id="use5286"
         xlink:href="#rect5101"
         y="0"
         x="0" />
      <use
         height="100%"
         width="100%"
         transform="translate(0,29.999997)"
         id="use5288"
         inkscape:transform-center-y="-2.0710688"
         xlink:href="#path5103"
         y="0"
         x="0" />
    </g>
    <g
       id="slider-horz-scale-has-marks-below-insensitive-dark"
       inkscape:transform-center-y="2.5000395"
       transform="matrix(-1,0,0,-1,460,1629.7244)"
       inkscape:label="#g5496">
      <use
         height="100%"
         width="100%"
         transform="translate(0,29.999997)"
         id="use5290"
         xlink:href="#use5107"
         y="0"
         x="0" />
      <use
         height="100%"
         width="100%"
         transform="translate(0,29.999997)"
         id="use5292"
         inkscape:transform-center-y="-2.0710688"
         xlink:href="#path5109"
         y="0"
         x="0" />
      <use
         height="100%"
         width="100%"
         transform="translate(0,29.999997)"
         id="use5294"
         xlink:href="#path5111"
         y="0"
         x="0" />
    </g>
    <g
       id="slider-vert-scale-has-marks-above"
       transform="matrix(0,-1,1,0,-747.36218,942.36218)"
       inkscape:transform-center-x="2.5000004"
       inkscape:label="#g5394">
      <use
         height="100%"
         width="100%"
         transform="translate(0,59.999997)"
         id="use5302"
         xlink:href="#rect4881"
         y="0"
         x="0" />
      <use
         height="100%"
         width="100%"
         transform="translate(0,59.999997)"
         id="use5304"
         inkscape:transform-center-y="-2.0710688"
         xlink:href="#path4883"
         y="0"
         x="0" />
    </g>
    <g
       id="slider-vert-scale-has-marks-above-insensitive"
       transform="matrix(0,-1,1,0,-687.36218,1002.3622)"
       inkscape:transform-center-x="2.5000004"
       inkscape:label="#g5403">
      <use
         height="100%"
         width="100%"
         transform="translate(0,59.999997)"
         id="use5306"
         xlink:href="#use4901"
         y="0"
         x="0" />
      <use
         height="100%"
         width="100%"
         transform="translate(0,59.999997)"
         id="use5308"
         inkscape:transform-center-y="-2.0710688"
         xlink:href="#use4903"
         y="0"
         x="0" />
      <use
         height="100%"
         width="100%"
         transform="translate(0,59.999997)"
         id="use5310"
         xlink:href="#path4888"
         y="0"
         x="0" />
    </g>
    <g
       id="slider-vert-scale-has-marks-above-dark"
       transform="matrix(0,-1,1,0,-597.36218,1092.3622)"
       inkscape:transform-center-x="2.4999995"
       inkscape:label="#g5501">
      <use
         height="100%"
         width="100%"
         transform="translate(0,59.999997)"
         id="use5318"
         xlink:href="#rect5101"
         y="0"
         x="0" />
      <use
         height="100%"
         width="100%"
         transform="translate(0,59.999997)"
         id="use5320"
         inkscape:transform-center-y="-2.0710688"
         xlink:href="#path5103"
         y="0"
         x="0" />
    </g>
    <g
       id="slider-vert-scale-has-marks-above-insensitive-dark"
       transform="matrix(0,-1,1,0,-537.36218,1152.3622)"
       inkscape:transform-center-x="2.4999995"
       inkscape:label="#g5510">
      <use
         height="100%"
         width="100%"
         transform="translate(0,59.999997)"
         id="use5322"
         xlink:href="#use5107"
         y="0"
         x="0" />
      <use
         height="100%"
         width="100%"
         transform="translate(0,59.999997)"
         id="use5324"
         inkscape:transform-center-y="-2.0710688"
         xlink:href="#path5109"
         y="0"
         x="0" />
      <use
         height="100%"
         width="100%"
         transform="translate(0,59.999997)"
         id="use5326"
         xlink:href="#path5111"
         y="0"
         x="0" />
    </g>
    <g
       id="slider-vert-scale-has-marks-below"
       transform="matrix(0,1,-1,0,817.36218,932.36218)"
       inkscape:transform-center-x="-2.5000004"
       inkscape:label="#g5408">
      <use
         height="100%"
         width="100%"
         transform="translate(0,89.999997)"
         id="use5334"
         xlink:href="#rect4881"
         y="0"
         x="0" />
      <use
         height="100%"
         width="100%"
         transform="translate(0,89.999997)"
         id="use5336"
         inkscape:transform-center-y="-2.0710688"
         xlink:href="#path4883"
         y="0"
         x="0" />
    </g>
    <g
       id="slider-vert-scale-has-marks-below-insensitive"
       transform="matrix(0,1,-1,0,877.36218,872.36218)"
       inkscape:transform-center-x="-2.5000004"
       inkscape:label="#g5417">
      <use
         height="100%"
         width="100%"
         transform="translate(0,89.999997)"
         id="use5338"
         xlink:href="#use4901"
         y="0"
         x="0" />
      <use
         height="100%"
         width="100%"
         transform="translate(0,89.999997)"
         id="use5340"
         inkscape:transform-center-y="-2.0710688"
         xlink:href="#use4903"
         y="0"
         x="0" />
      <use
         height="100%"
         width="100%"
         transform="translate(0,89.999997)"
         id="use5342"
         xlink:href="#path4888"
         y="0"
         x="0" />
    </g>
    <g
       id="slider-vert-scale-has-marks-below-dark"
       transform="matrix(0,1,-1,0,967.36218,782.36218)"
       inkscape:transform-center-x="-2.4999995"
       inkscape:label="#g5515">
      <use
         height="100%"
         width="100%"
         transform="translate(0,89.999997)"
         id="use5350"
         xlink:href="#rect5101"
         y="0"
         x="0" />
      <use
         height="100%"
         width="100%"
         transform="translate(0,89.999997)"
         id="use5352"
         inkscape:transform-center-y="-2.0710688"
         xlink:href="#path5103"
         y="0"
         x="0" />
    </g>
    <g
       id="slider-vert-scale-has-marks-below-insensitive-dark"
       transform="matrix(0,1,-1,0,1027.3622,722.36218)"
       inkscape:transform-center-x="-2.5000195"
       inkscape:label="#g5524">
      <use
         height="100%"
         width="100%"
         transform="translate(0,89.999997)"
         id="use5354"
         xlink:href="#use5107"
         y="0"
         x="0" />
      <use
         height="100%"
         width="100%"
         transform="translate(0,89.999997)"
         id="use5356"
         inkscape:transform-center-y="-2.0710688"
         xlink:href="#path5109"
         y="0"
         x="0" />
      <use
         height="100%"
         width="100%"
         transform="translate(0,89.999997)"
         id="use5358"
         xlink:href="#path5111"
         y="0"
         x="0" />
    </g>
    <g
       id="slider"
       inkscape:label="#g5834"
       transform="translate(0,155)">
      <circle
         r="10"
         cy="827.36218"
         cx="20"
         id="path5579"
         style="color:#000000;clip-rule:nonzero;display:inline;overflow:visible;visibility:visible;opacity:1;isolation:auto;mix-blend-mode:normal;color-interpolation:sRGB;color-interpolation-filters:linearRGB;solid-color:#000000;solid-opacity:1;fill:#ff4081;fill-opacity:1;fill-rule:nonzero;stroke:none;stroke-width:1;stroke-linecap:butt;stroke-linejoin:miter;stroke-miterlimit:4;stroke-dasharray:none;stroke-dashoffset:0;stroke-opacity:1;color-rendering:auto;image-rendering:auto;shape-rendering:auto;text-rendering:auto;enable-background:accumulate" />
    </g>
    <g
       id="slider-insensitive"
       inkscape:label="#g5841"
       transform="translate(0,155)">
      <circle
         style="color:#000000;clip-rule:nonzero;display:inline;overflow:visible;visibility:visible;opacity:1;isolation:auto;mix-blend-mode:normal;color-interpolation:sRGB;color-interpolation-filters:linearRGB;solid-color:#000000;solid-opacity:1;fill:#f5f5f5;fill-opacity:1;fill-rule:nonzero;stroke:none;stroke-width:1;stroke-linecap:butt;stroke-linejoin:miter;stroke-miterlimit:4;stroke-dasharray:none;stroke-dashoffset:0;stroke-opacity:1;color-rendering:auto;image-rendering:auto;shape-rendering:auto;text-rendering:auto;enable-background:accumulate"
         id="use5583"
         cx="80"
         cy="827.36218"
         r="10" />
      <circle
         r="7.5"
         cy="827.36218"
         cx="80"
         id="path5633"
         style="color:#000000;clip-rule:nonzero;display:inline;overflow:visible;visibility:visible;opacity:0.12;isolation:auto;mix-blend-mode:normal;color-interpolation:sRGB;color-interpolation-filters:linearRGB;solid-color:#000000;solid-opacity:1;fill:none;fill-opacity:0.24929181;fill-rule:nonzero;stroke:#000000;stroke-width:5;stroke-linecap:butt;stroke-linejoin:miter;stroke-miterlimit:4;stroke-dasharray:none;stroke-dashoffset:0;stroke-opacity:0.8;color-rendering:auto;image-rendering:auto;shape-rendering:auto;text-rendering:auto;enable-background:accumulate" />
    </g>
    <g
       id="slider-dark"
       inkscape:label="#g5845"
       transform="translate(0,155)">
      <circle
         style="color:#000000;clip-rule:nonzero;display:inline;overflow:visible;visibility:visible;opacity:1;isolation:auto;mix-blend-mode:normal;color-interpolation:sRGB;color-interpolation-filters:linearRGB;solid-color:#000000;solid-opacity:1;fill:#ff4081;fill-opacity:1;fill-rule:nonzero;stroke:none;stroke-width:1;stroke-linecap:butt;stroke-linejoin:miter;stroke-miterlimit:4;stroke-dasharray:none;stroke-dashoffset:0;stroke-opacity:1;color-rendering:auto;image-rendering:auto;shape-rendering:auto;text-rendering:auto;enable-background:accumulate"
         id="circle5649"
         cx="170"
         cy="827.36218"
         r="10" />
    </g>
    <g
       id="slider-insensitive-dark"
       inkscape:label="#g5852"
       transform="translate(0,155)">
      <circle
         r="10"
         cy="827.36218"
         cx="230"
         id="circle5653"
         style="color:#000000;clip-rule:nonzero;display:inline;overflow:visible;visibility:visible;opacity:1;isolation:auto;mix-blend-mode:normal;color-interpolation:sRGB;color-interpolation-filters:linearRGB;solid-color:#000000;solid-opacity:1;fill:#455a64;fill-opacity:1;fill-rule:nonzero;stroke:none;stroke-width:1;stroke-linecap:butt;stroke-linejoin:miter;stroke-miterlimit:4;stroke-dasharray:none;stroke-dashoffset:0;stroke-opacity:1;color-rendering:auto;image-rendering:auto;shape-rendering:auto;text-rendering:auto;enable-background:accumulate" />
      <circle
         style="color:#000000;clip-rule:nonzero;display:inline;overflow:visible;visibility:visible;opacity:0.12;isolation:auto;mix-blend-mode:normal;color-interpolation:sRGB;color-interpolation-filters:linearRGB;solid-color:#000000;solid-opacity:1;fill:none;fill-opacity:0.24929181;fill-rule:nonzero;stroke:#FFFFFF;stroke-width:5;stroke-linecap:butt;stroke-linejoin:miter;stroke-miterlimit:4;stroke-dasharray:none;stroke-dashoffset:0;stroke-opacity:1;color-rendering:auto;image-rendering:auto;shape-rendering:auto;text-rendering:auto;enable-background:accumulate"
         id="circle5657"
         cx="230"
         cy="827.36218"
         r="7.5" />
    </g>
    <g
       id="radio-checked-symbolic"
       inkscape:label="#g4656"
       transform="translate(-10,0)">
      <path
         style="color:#000000;clip-rule:nonzero;display:inline;overflow:visible;visibility:visible;opacity:1;isolation:auto;mix-blend-mode:normal;color-interpolation:sRGB;color-interpolation-filters:linearRGB;solid-color:#000000;solid-opacity:1;fill:#ff4081;fill-opacity:1;fill-rule:nonzero;stroke:none;stroke-width:2;stroke-linecap:butt;stroke-linejoin:miter;stroke-miterlimit:4;stroke-dasharray:none;stroke-dashoffset:0;stroke-opacity:1;marker:none;color-rendering:auto;image-rendering:auto;shape-rendering:auto;text-rendering:auto;enable-background:accumulate"
         d="M 90 107 C 85.593567 107 82 110.59356 82 115 C 82 119.40643 85.593567 123 90 123 C 94.40643 123 98 119.40643 98 115 C 98 110.59356 94.40643 107 90 107 z M 90 109 C 93.32555 109 96 111.67444 96 115 C 96 118.32555 93.32555 121 90 121 C 86.674447 121 84 118.32555 84 115 C 84 111.67444 86.674447 109 90 109 z M 90 111 A 4 4 0 0 0 86 115 A 4 4 0 0 0 90 119 A 4 4 0 0 0 94 115 A 4 4 0 0 0 90 111 z "
         transform="translate(10,602.36218)"
         id="path4605" />
    </g>
    <g
       id="checkbox-checked-symbolic"
       inkscape:label="#g4638"
       transform="translate(-10,0)">
      <path
         inkscape:connector-curvature="0"
         style="fill:#ff4081;fill-opacity:1;stroke:none"
         d="m 94,634.36218 c -1.10801,0 -2,0.89199 -2,2 l 0,12 c 0,1.10801 0.89199,2 2,2 l 12,0 c 1.10801,0 2,-0.89199 2,-2 l 0,-12 c 0,-1.10801 -0.89199,-2 -2,-2 l -12,0 z m 10.58594,3.58594 1.41406,1.41406 -8,8 -4,-4 1.414063,-1.41406 2.585937,2.58594 6.58594,-6.58594 z"
         id="rect4138" />
    </g>
    <g
       id="checkbox-symbolic"
       inkscape:label="#g4632"
       transform="translate(-10,0)"
       style="opacity:1">
      <path
         style="color:#000000;font-style:normal;font-variant:normal;font-weight:normal;font-stretch:normal;font-size:medium;line-height:normal;font-family:sans-serif;text-indent:0;text-align:start;text-decoration:none;text-decoration-line:none;text-decoration-style:solid;text-decoration-color:#000000;letter-spacing:normal;word-spacing:normal;text-transform:none;direction:ltr;block-progression:tb;writing-mode:lr-tb;baseline-shift:baseline;text-anchor:start;white-space:normal;clip-rule:nonzero;display:inline;overflow:visible;visibility:visible;opacity:0.6;isolation:auto;mix-blend-mode:normal;color-interpolation:sRGB;color-interpolation-filters:linearRGB;solid-color:#000000;solid-opacity:1;fill:#000000;fill-opacity:0.8;fill-rule:nonzero;stroke:none;stroke-width:2;stroke-linecap:butt;stroke-linejoin:miter;stroke-miterlimit:4;stroke-dasharray:none;stroke-dashoffset:0;stroke-opacity:1;marker:none;color-rendering:auto;image-rendering:auto;shape-rendering:auto;text-rendering:auto;enable-background:accumulate"
         d="m 94,609.36133 c -1.090701,0 -2,0.9093 -2,2 l 0,12 c 0,1.0907 0.909299,2 2,2 l 12,0 c 1.0907,0 2,-0.9093 2,-2 l 0,-12 c 0,-1.0907 -0.9093,-2 -2,-2 l -12,0 z m 0,2 12,0 0,12 -12,0 0,-12 z"
         id="rect4505"
         inkscape:connector-curvature="0" />
    </g>
    <g
       id="radio-symbolic"
       inkscape:label="#g4650"
       transform="translate(-10,0)"
       style="opacity:1">
      <path
         style="color:#000000;font-style:normal;font-variant:normal;font-weight:normal;font-stretch:normal;font-size:medium;line-height:normal;font-family:sans-serif;text-indent:0;text-align:start;text-decoration:none;text-decoration-line:none;text-decoration-style:solid;text-decoration-color:#000000;letter-spacing:normal;word-spacing:normal;text-transform:none;direction:ltr;block-progression:tb;writing-mode:lr-tb;baseline-shift:baseline;text-anchor:start;white-space:normal;clip-rule:nonzero;display:inline;overflow:visible;visibility:visible;opacity:0.6;isolation:auto;mix-blend-mode:normal;color-interpolation:sRGB;color-interpolation-filters:linearRGB;solid-color:#000000;solid-opacity:1;fill:#000000;fill-opacity:0.8;fill-rule:nonzero;stroke:none;stroke-width:2;stroke-linecap:butt;stroke-linejoin:miter;stroke-miterlimit:4;stroke-dasharray:none;stroke-dashoffset:0;stroke-opacity:1;marker:none;color-rendering:auto;image-rendering:auto;shape-rendering:auto;text-rendering:auto;enable-background:accumulate"
         d="m 100,684.36133 c -4.406433,0 -8,3.59356 -8,8 0,4.40643 3.593567,8 8,8 4.40643,0 8,-3.59357 8,-8 0,-4.40644 -3.59357,-8 -8,-8 z m 0,2 c 3.32555,0 6,2.67444 6,6 0,3.32555 -2.67445,6 -6,6 -3.325553,0 -6,-2.67445 -6,-6 0,-3.32556 2.674447,-6 6,-6 z"
         id="path4507"
         inkscape:connector-curvature="0" />
    </g>
    <g
       id="radio-mixed-symbolic"
       inkscape:label="#g4662"
       transform="translate(-10,0)">
      <path
         style="color:#000000;clip-rule:nonzero;display:inline;overflow:visible;visibility:visible;opacity:1;isolation:auto;mix-blend-mode:normal;color-interpolation:sRGB;color-interpolation-filters:linearRGB;solid-color:#000000;solid-opacity:1;fill:#ff4081;fill-opacity:1;fill-rule:nonzero;stroke:none;stroke-width:2;stroke-linecap:butt;stroke-linejoin:miter;stroke-miterlimit:4;stroke-dasharray:none;stroke-dashoffset:0;stroke-opacity:1;marker:none;color-rendering:auto;image-rendering:auto;shape-rendering:auto;text-rendering:auto;enable-background:accumulate"
         d="M 90 132 C 85.593567 132 82 135.59356 82 140 C 82 144.40643 85.593567 148 90 148 C 94.40643 148 98 144.40643 98 140 C 98 135.59356 94.40643 132 90 132 z M 90 134 C 93.32555 134 96 136.67444 96 140 C 96 143.32555 93.32555 146 90 146 C 86.674447 146 84 143.32555 84 140 C 84 136.67444 86.674447 134 90 134 z M 86 139 L 86 141 L 94 141 L 94 139 L 86 139 z "
         transform="translate(10,602.36218)"
         id="rect4607" />
    </g>
    <g
       id="checkbox-mixed-symbolic"
       inkscape:label="#g4644"
       transform="translate(-10,0)">
      <path
         style="color:#000000;clip-rule:nonzero;display:inline;overflow:visible;visibility:visible;opacity:1;isolation:auto;mix-blend-mode:normal;color-interpolation:sRGB;color-interpolation-filters:linearRGB;solid-color:#000000;solid-opacity:1;fill:#ff4081;fill-opacity:1;fill-rule:nonzero;stroke:none;stroke-width:1;stroke-linecap:butt;stroke-linejoin:miter;stroke-miterlimit:4;stroke-dasharray:none;stroke-dashoffset:0;stroke-opacity:1;marker:none;color-rendering:auto;image-rendering:auto;shape-rendering:auto;text-rendering:auto;enable-background:accumulate;filter-blend-mode:normal;filter-gaussianBlur-deviation:0"
         d="M 84 57 C 82.892001 57 82 57.892 82 59 L 82 71 C 82 72.108 82.892001 73 84 73 L 96 73 C 97.108 73 98 72.108 98 71 L 98 59 C 98 57.892 97.108 57 96 57 L 84 57 z M 86 64 L 94 64 L 94 66 L 86 66 L 86 64 z "
         transform="translate(10,602.36218)"
         id="rect4518" />
    </g>
    <g
       id="radio-checked-insensitive-symbolic"
       inkscape:label="#g4659"
       transform="translate(-10,0)"
       style="opacity:1">
      <use
         x="0"
         y="0"
         xlink:href="#path4605"
         id="use4729"
         width="100%"
         height="100%"
         transform="translate(25,0)"
         style="opacity:0.4" />
    </g>
    <g
       id="checkbox-checked-insensitive-symbolic"
       inkscape:label="#g4641"
       transform="translate(-10,0)">
      <use
         x="0"
         y="0"
         xlink:href="#rect4138"
         id="use4528"
         width="100%"
         height="100%"
         transform="translate(25,0)"
         style="opacity:0.4" />
    </g>
    <g
       id="checkbox-insensitive-symbolic"
       inkscape:label="#g4635"
       transform="translate(-10,0)"
       style="opacity:1">
      <use
         style="opacity:0.4"
         height="100%"
         width="100%"
         transform="translate(25,0)"
         id="use4534"
         xlink:href="#rect4505"
         y="0"
         x="0" />
    </g>
    <g
       id="radio-insensitive-symbolic"
       inkscape:label="#g4653"
       transform="translate(-10,0)"
       style="opacity:1">
      <use
         style="opacity:0.4"
         height="100%"
         width="100%"
         transform="translate(25,0)"
         id="use4536"
         xlink:href="#path4507"
         y="0"
         x="0" />
    </g>
    <g
       id="radio-mixed-insensitive-symbolic"
       inkscape:label="#g4665"
       transform="translate(-10,0)"
       style="opacity:1">
      <use
         x="0"
         y="0"
         xlink:href="#rect4607"
         id="use4763"
         width="100%"
         height="100%"
         transform="translate(25,0)"
         style="opacity:0.4" />
    </g>
    <g
       id="checkbox-mixed-insensitive-symbolic"
       inkscape:label="#g4647"
       transform="translate(-10,0)">
      <use
         style="opacity:0.4"
         height="100%"
         width="100%"
         transform="translate(25,0)"
         id="use4540"
         xlink:href="#rect4518"
         y="0"
         x="0" />
    </g>
    <g
       id="radio-checked-symbolic-dark"
       inkscape:label="#g4692"
       transform="translate(-10,0)">
      <use
         x="0"
         y="0"
         xlink:href="#path4605"
         id="use4700"
         width="100%"
         height="100%"
         transform="translate(150,0)" />
    </g>
    <g
       id="checkbox-checked-symbolic-dark"
       inkscape:label="#g4674"
       transform="translate(-10,0)">
      <use
         x="0"
         y="0"
         xlink:href="#rect4138"
         id="use4640"
         width="100%"
         height="100%"
         transform="translate(150,0)" />
    </g>
    <g
       id="checkbox-symbolic-dark"
       inkscape:label="#g4668"
       transform="translate(-10,0)"
       style="opacity:1">
      <path
         style="color:#000000;font-style:normal;font-variant:normal;font-weight:normal;font-stretch:normal;font-size:medium;line-height:normal;font-family:sans-serif;text-indent:0;text-align:start;text-decoration:none;text-decoration-line:none;text-decoration-style:solid;text-decoration-color:#000000;letter-spacing:normal;word-spacing:normal;text-transform:none;direction:ltr;block-progression:tb;writing-mode:lr-tb;baseline-shift:baseline;text-anchor:start;white-space:normal;clip-rule:nonzero;display:inline;overflow:visible;visibility:visible;opacity:0.6;isolation:auto;mix-blend-mode:normal;color-interpolation:sRGB;color-interpolation-filters:linearRGB;solid-color:#000000;solid-opacity:1;fill:#ffffff;fill-opacity:1;fill-rule:nonzero;stroke:none;stroke-width:2;stroke-linecap:butt;stroke-linejoin:miter;stroke-miterlimit:4;stroke-dasharray:none;stroke-dashoffset:0;stroke-opacity:1;marker:none;color-rendering:auto;image-rendering:auto;shape-rendering:auto;text-rendering:auto;enable-background:accumulate"
         d="m 244,609.36133 c -1.0907,0 -2,0.9093 -2,2 l 0,12 c 0,1.0907 0.9093,2 2,2 l 12,0 c 1.0907,0 2,-0.9093 2,-2 l 0,-12 c 0,-1.0907 -0.9093,-2 -2,-2 l -12,0 z m 0,2 12,0 0,12 -12,0 0,-12 z"
         id="rect4600"
         inkscape:connector-curvature="0" />
    </g>
    <g
       id="radio-symbolic-dark"
       inkscape:label="#g4686"
       transform="translate(-10,0)"
       style="opacity:1">
      <path
         style="color:#000000;font-style:normal;font-variant:normal;font-weight:normal;font-stretch:normal;font-size:medium;line-height:normal;font-family:sans-serif;text-indent:0;text-align:start;text-decoration:none;text-decoration-line:none;text-decoration-style:solid;text-decoration-color:#000000;letter-spacing:normal;word-spacing:normal;text-transform:none;direction:ltr;block-progression:tb;writing-mode:lr-tb;baseline-shift:baseline;text-anchor:start;white-space:normal;clip-rule:nonzero;display:inline;overflow:visible;visibility:visible;opacity:0.6;isolation:auto;mix-blend-mode:normal;color-interpolation:sRGB;color-interpolation-filters:linearRGB;solid-color:#000000;solid-opacity:1;fill:#ffffff;fill-opacity:1;fill-rule:nonzero;stroke:none;stroke-width:2;stroke-linecap:butt;stroke-linejoin:miter;stroke-miterlimit:4;stroke-dasharray:none;stroke-dashoffset:0;stroke-opacity:1;marker:none;color-rendering:auto;image-rendering:auto;shape-rendering:auto;text-rendering:auto;enable-background:accumulate"
         d="m 250,684.36133 c -4.40643,0 -8,3.59356 -8,8 0,4.40643 3.59357,8 8,8 4.40643,0 8,-3.59357 8,-8 0,-4.40644 -3.59357,-8 -8,-8 z m 0,2 c 3.32555,0 6,2.67444 6,6 0,3.32555 -2.67445,6 -6,6 -3.32555,0 -6,-2.67445 -6,-6 0,-3.32556 2.67445,-6 6,-6 z"
         id="circle4602"
         inkscape:connector-curvature="0" />
    </g>
    <g
       id="radio-mixed-symbolic-dark"
       inkscape:label="#g4698"
       transform="translate(-10,0)">
      <use
         x="0"
         y="0"
         xlink:href="#rect4607"
         id="use4797"
         width="100%"
         height="100%"
         transform="translate(150,0)" />
    </g>
    <g
       id="checkbox-mixed-symbolic-dark"
       inkscape:label="#g4680"
       transform="translate(-10,0)">
      <use
         x="0"
         y="0"
         xlink:href="#rect4518"
         id="use5016"
         width="100%"
         height="100%"
         transform="translate(150,0)" />
    </g>
    <g
       id="radio-checked-insensitive-symbolic-dark"
       inkscape:label="#g4695"
       transform="translate(-10,0)"
       style="opacity:1">
      <use
         style="opacity:1"
         x="0"
         y="0"
         xlink:href="#use4729"
         id="use4746"
         width="100%"
         height="100%"
         transform="translate(150,0)" />
    </g>
    <g
       id="checkbox-checked-insensitive-symbolic-dark"
       inkscape:label="#g4677"
       transform="translate(-10,0)">
      <use
         x="0"
         y="0"
         xlink:href="#use4528"
         id="use4659"
         width="100%"
         height="100%"
         transform="translate(150,0)" />
    </g>
    <g
       id="checkbox-insensitive-symbolic-dark"
       inkscape:label="#g4671"
       transform="translate(-10,0)"
       style="opacity:1">
      <use
         style="opacity:0.4"
         height="100%"
         width="100%"
         transform="translate(25,0)"
         id="use4624"
         xlink:href="#rect4600"
         y="0"
         x="0" />
    </g>
    <g
       id="radio-insensitive-symbolic-dark"
       inkscape:label="#g4689"
       transform="translate(-10,0)"
       style="opacity:1">
      <use
         style="opacity:0.4"
         height="100%"
         width="100%"
         transform="translate(25,0)"
         id="use4626"
         xlink:href="#circle4602"
         y="0"
         x="0" />
    </g>
    <g
       id="radio-mixed-insensitive-symbolic-dark"
       inkscape:label="#g4701"
       transform="translate(-10,0)"
       style="opacity:1">
      <use
         style="opacity:1"
         x="0"
         y="0"
         xlink:href="#use4763"
         id="use4780"
         width="100%"
         height="100%"
         transform="translate(150,0)" />
    </g>
    <g
       id="checkbox-mixed-insensitive-symbolic-dark"
       inkscape:label="#g4683"
       transform="translate(-10,0)">
      <use
         x="0"
         y="0"
         xlink:href="#use4540"
         id="use5035"
         width="100%"
         height="100%"
         transform="translate(150,0)" />
    </g>
  </g>
</svg>
